{
    "img": "/img/Activity/UV/Activity1/longueur_onde.svg",
    "height": 567,
    "width": 1625,
    "dropzones" : [
        {
            "x": 2,
            "y": 80,
            "width": 216,
            "height": 55
        },
        {
            "x": 224,
            "y": 80,
            "width": 202,
            "height": 55
        },
        {
            "x": 432,
            "y": 80,
            "width": 122,
            "height": 55
        },
        {
            "x": 591,
            "y": 80,
            "width": 180,
            "height": 55
        },
        {
            "x": 777,
            "y": 80,
            "width": 194,
            "height": 55
        },
        {
            "x": 977,
            "y": 80,
            "width": 194,
            "height": 55
        },
        {
            "x": 2,
            "y": 138,
            "width": 216,
            "height": 90
        },
        {
            "x": 224,
            "y": 138,
              "width": 202,
              "height": 90
        },
        {
          "x": 432,
          "y": 138,
          "width": 122,
          "height": 90
        },
        {
          "x": 591,
          "y": 138,
          "width": 180,
          "height": 90
        },
        {
          "x": 777,
          "y": 138,
          "width": 194,
          "height": 90
        },
        {
          "x": 977,
          "y": 138,
          "width": 194,
          "height": 90
        },
        {
          "x": 470,
          "y": 390,
          "width": 194,
          "height": 55
        }
    ],
    "dragElements" : [
        {
          "width": 190,
          "height": 90,
          "img": "/img/Activity/UV/Activity1/text_gama.png"
        },
        {
          "width": 170,
          "height": 70,
          "img": "/img/Activity/UV/Activity1/text_rayon.png"
        },
        {
          "width": 118,
          "height": 70,
          "img": "/img/Activity/UV/Activity1/text_uv.png"
        },
        {
          "width": 170,
          "height": 70,
          "img": "/img/Activity/UV/Activity1/text_ir.png"
        },
        {
          "width": 170,
          "height": 70,
          "img": "/img/Activity/UV/Activity1/text_microonde.png"
        },
        {
          "width": 170,
          "height": 70,
          "img": "/img/Activity/UV/Activity1/text_radioelectrique.png"
        },
        {
          "width": 90,
          "height": 90,
          "img": "/img/Activity/UV/Activity1/image_gama.png"
        },
        {
          "width": 130,
          "height": 90,
          "img": "/img/Activity/UV/Activity1/image_rayon.gif"
        },
        {
          "width": 110,
          "height": 100,
          "img": "/img/Activity/UV/Activity1/image_ultraviolet.png"
        },
        {
          "width": 110,
          "height": 100,
          "img": "/img/Activity/UV/Activity1/image_infrarouge.jpeg"
        },
        {
          "width": 90,
          "height": 90,
          "img": "/img/Activity/UV/Activity1/image_microonde.png"
        },
        {
          "width": 90,
          "height": 90,
          "img": "/img/Activity/UV/Activity1/image_radioelectrique.png"
        },
        {
          "width": 170,
          "height": 70,
          "img": "/img/Activity/UV/Activity1/text_visible.png"
        }
    ]
  }
