{"_id":{"$oid":"5a1dc14932803df5fdf7202c"},"username":"admin","password":"$2a$10$AxeP/cfBqv0CVT/NN.p1S.9I0ihK7yZ2QNWR8LQVrGBSkwjuZbTHu","role":"admin","__v":0}
{"_id":{"$oid":"5a1dc5303462eef69d50dfa5"},"username":"user","password":"$2a$10$X4sobjpb.MFbLXCU46H1tuekkIllFNE64nLfZE7Rw.uUbvhOVwdwK","role":"user","__v":0}
{"_id":{"$oid":"5a26aef8111e26249024c8fc"},"username":"user1","password":"$2a$10$7HXO3DmWsk/yQO7y0EMy0e1he243kC4HhtB8rF253DuGG3G.QIWM2","role":"user","__v":0}
{"_id":{"$oid":"5a26aefc111e26249024c8fd"},"username":"user2","password":"$2a$10$2TMFLe4aT5Hx8rRtaA.l7.Kcw8dLiN4qyb0L8CbNcNYda1oDO4eC2","role":"user","__v":0}
{"_id":{"$oid":"5a26aeff111e26249024c8fe"},"username":"user3","password":"$2a$10$uoShHwWQiBXJezUuuJCwa.5oCQnY1Ju9uX8lUfmfvUte0JLAxOyFO","role":"user","__v":0}
